cross_validation
…
## [1] 0.2437012

rmse(wiggly_mod, test_df)

## [1] 0.3471883

iterate

cv_df = 
  crossv_mc(nonlin_df, 100) # deflult percentage is 80:20

cv_df %>% pull(train) %>% .[[1]] %>% as_tibble

## # A tibble: 79 x 3
##       id     x       y
##    <int> <dbl>   <dbl>
##  1     1 0.266  1.11  
##  2     2 0.372  0.764 
##  3     3 0.573  0.358 
##  4     5 0.202  1.33  
##  5     7 0.945 -3.27  
##  6     8 0.661 -0.615 
##  7     9 0.629  0.0878
##  8    11 0.206  1.63  
##  9    12 0.177  0.836 
## 10    14 0.384  0.938 
## # ... with 69 more rows
…
